<?xml version="1.0" encoding="UTF-8"?>
<!DOCTYPE svg PUBLIC "-//W3C//DTD SVG 1.1//EN" "http://www.w3.org/Graphics/SVG/1.1/DTD/svg11.dtd">
<svg xmlns="http://www.w3.org/2000/svg" xmlns:xlink="http://www.w3.org/1999/xlink" version="1.1" width="181px" height="181px" viewBox="-0.5 -0.5 181 181"><defs/><g><rect x="-0.21" y="0" width="180" height="180" fill="none" stroke="none" pointer-events="all"/><rect x="9.79" y="108" width="160" height="60" rx="30" ry="30" fill="#ffffff" stroke="#ffffff" stroke-width="16" pointer-events="all"/><rect x="7" y="69" width="56" height="1" rx="0.5" ry="0.5" fill="none" stroke="#ffffff" stroke-width="16" transform="rotate(30,35,69.5)" pointer-events="all"/><rect x="7" y="41" width="56" height="1" rx="0.5" ry="0.5" fill="none" stroke="#ffffff" stroke-width="16" transform="rotate(-30,35,41.5)" pointer-events="all"/><rect x="117" y="41" width="56" height="1" rx="0.5" ry="0.5" fill="none" stroke="#ffffff" stroke-width="16" transform="rotate(30,145,41.5)" pointer-events="all"/><rect x="117" y="69" width="56" height="1" rx="0.5" ry="0.5" fill="none" stroke="#ffffff" stroke-width="16" transform="rotate(-30,145,69.5)" pointer-events="all"/><rect x="50.63" y="50.03" width="78.32" height="1" rx="0.5" ry="0.5" fill="none" stroke="#ffffff" stroke-width="16" transform="rotate(-255,89.79,50.53)" pointer-events="all"/><ellipse cx="40.01" cy="138" rx="15.015" ry="15.015" fill="#5b0000" stroke="#5b0000" stroke-width="24" pointer-events="all"/></g></svg>
